{
  "ItemID": "124caf7f-ce5f-432e-ac16-eaac6dc0d7ee",
  "ItemName": "Quote",
  "ItemPath": "/sitecore/content/Cooperators/SSLPages/Shared/Controls/Quote",
  "ParentID": "3af89d0d-22e0-4ae3-9db8-c7a8c90211a4",
  "TemplateID": "7485a875-ec2e-4743-bd13-a54b63713f24",
  "TemplateName": "Quote",
  "CloneSource": null,
  "ItemLanguage": "en",
  "ItemVersion": "1",
  "DisplayName": "Quote",
  "HasChildren": "False",
  "ItemIcon": "/temp/iconcache/applications/32x32/document.png",
  "ItemMedialUrl": "/~/icon/Applications/48x48/Document.png.aspx",
  "ItemUrl": "~/link.aspx?_id=124CAF7FCE5F432EAC16EAAC6DC0D7EE&amp;_z=z",
  "quote_coverage_label_descriptive_text_covIRCollision": "Deductible",
  "sidebar_quote_info_effective_date": "Effective date",
  "buy_prior_policy_saveall_warning_modal_heading": "Modal heading",
  "quote_offer_yearly_interval": "a year",
  "driver_details_has_convictions_label": "Over the last 3 years, have you had any convictions or tickets?",
  "csc_creditScoreConsent_CG_right_label": "No thanks, not now.",
  "header_phone": "1-877-630-2667",
  "views_all_date_month_March": "March",
  "vehicle_details_error_purchase_price_max": "Please enter an amount up to $75,000.",
  "views_contact-details_progress_bar_heading1": "Start",
  "views_all_date_year_placeholder": "Year",
  "views_all_app_next_step_aria": "Click to go to the next step in the quote process",
  "principal_driver_label": "Who’s the primary driver?",
  "sidebar_quote_info_quote_holder": "Name ",
  "views_contact-details_label_address_line_2": "Address Line 2",
  "footer_privacy_link_accessibility": "Click to learn how your privacy’s important to us. Open a new tab for our privacy policies",
  "gbb_not_included": "Not included",
  "exit_button_accessibility": "Click to leave Get a Quote",
  "consent_ExternalMarketingInd_CG": "Our partners and you",
  "views_all_date_month_placeholder": "Month",
  "driver_details_driver_training_label": "Did you complete a driver training course?",
  "consent_InternalMarketingInd_CG_message": "We would like your consent to use and share your contact information among The Co-operators group of companies (as defined here) for the purposes of providing you with additional insurance-related information and information regarding our other financial products, services, or offers and the products, services, or offers of our external business partners by electronic means (e.g. email, telephone, text) or by regular mail.",
  "edit_vehicle_next_label": "Update",
  "vehicle_details_principal_driver_placeholder": "Select the person who drives this vehicle the most",
  "quote_offer_good_title": "Essential",
  "consent_ExternalMarketingInd_CG_mesage": "We would like your consent to share your contact information with our external business partners so that they can provide you with information regarding their products.",
  "quote_coverage_label_descriptive_text_covIRCivilLiability": "Limit",
  "auto_home_bundle_placeholder": "Bundle it up.",
  "views_all_info_bar_text": "Here’s your code.  {{quoteID}}. Use it to pick up where you left off, anytime.",
  "sask": "SK",
  "coverage_header_covIRCollision": "What is it?",
  "retrieve_modal_placeholder_email": "Enter your email address",
  "quote_gbb_table_title": "Review and select one of three plans.",
  "coverage_detail_covIRChangeToIndemnityAE5Y_QC": "5 minutes after you drive it off the lot, the value of your new car depreciates.  For the first 5 years of ownership or lease we’ll protect you against its depreciation – in the event of a total loss – by paying you up to the original, or manufacturer’s list, price. When it comes to cars, values always change.  We change that.",
  "driver_details_suspension_label": "Has your licence been suspended in the last 3 years?",
  "sidebar_quote_info_heading": "Quote Summary",
  "buy_prior_policy_saveall_warning_all_button": "Add to all placeholder",
  "views_all_accordion_edit": "CHANGE",
  "views_contact-details_placeholder_address_line_1": "Enter your address ",
  "driver_assignment_modal_next": "Update",
  "views_contact-details_label_privacy_consent": "I consent to the collection and use by <span class=\"no-wrap\">Co-operators</span> General Insurance Company of the personal information I provide as part of this online automobile insurance application so that <span class=\"no-wrap\">Co-operators</span> General Insurance Company can assess which automobile insurance products are suitable for my needs and provide me with an accurate quote with respect to such insurance products. I understand that <span class=\"no-wrap\">Co-operators</span> General Insurance Company will not disclose such personal information to other parties except with my prior consent or where required by law. I agree that I will only provide the personal information of other individuals as part of this application if I have previously obtained their permission to do so.",
  "views_contact-details_aria_label_address": "We recommend that people who use screenreaders manually enter their address, instead of using the search option.  Use the tab key to go to the « Manually Enter My Address » button.",
  "views_contact-details_placeholder_state": "Province",
  "compare_all_plans_button": "COMPARE PLANS",
  "driver_details_label_serious_convictions": "Serious convictions or tickets",
  "view_more_plans_label": "Click to learn more about this plan.",
  "driver_details_label_suspension_start": "Suspension start date",
  "footer_image_alt_text": "Co-operators",
  "mobile_menu_contact_link": "mobile_menu_contact_link",
  "payment_accordion_heading_2": "payment_accordion_heading_2 [Payment options]",
  "gbb_QEF43_maybe": "May Qualify-Contact Us",
  "driver_list_remove_button_accessibility": "Click Remove to delete this driver from your list ",
  "vin_lookup_toast_update_button": "Update",
  "sidebar_quote_info_home_number": "Phone ",
  "back_to_all_plans": "BACK TO YOUR PLANS",
  "put_it_together_msg": "Let’s put it all together!",
  "quote_coverage_tooltip_covIRComplement_QC": "‘Complement’ takes you that extra distance. It enhances your Accident Benefits insurance, includes Rental Costs Plus as well as Non-Owned Vehicle coverage with a 75K limit.  It even takes care of your deductible in the event of a total loss or hit-and-run. ",
  "views_all_app_cancel_aria": "Click to exit the quote process",
  "vehicle_details_error_annual_mileage_max": "Please enter a distance up to 60,000 kms.",
  "vehicle_details_commute_distance_label": "Daily commute (kms)",
  "views_contact-details_heading": "Just one more thing",
  "Value entered must be a valid phone number": "That doesn't ring a bell. Check your phone number, and try again.",
  "vehicle_list_remove_button_accessibility": "Click Remove to delete this vehicle from your list ",
  "coverage_header_covIRLossOfUse_QC": "What is it?",
  "Required_ElectronicCampaigns_CG": "Please do something here",
  "quote_legal_name_label_covIRComprehensive": "All perils other than collision and upset",
  "driver_details_label_date_of_birth": "Date of Birth",
  "reset_quote_modal_heading": "Go to the plans?",
  "vehicle_summary_accessibility": "A vehicle summary appears at the beginning of the page. You can use it to edit or remove drivers from your quote. The driver summary page now includes your driver and their details.",
  "error_IRscr7326_title": "We’ve hit a roadblock",
  "nova_scotia": "NS",
  "year_month_toggle_yearly_aria": "Click to view your yearly rate.",
  "address_modal_main_heading": "Your Address",
  "vin_lookup_multiple_vehicle_found_toast": "vin_ lookup_ multiple_ vehicle_ found_ toast",
  "coverage_detail_covIRComplement_QC": " Complement takes you that extra distance. It enhances your Accident Benefits insurance, includes Rental Costs Plus as well as Non-Owned Vehicle coverage with a 75K limit.  It even takes care of your deductible in the event of a total loss or hit-and-run. ",
  "driver_ok_button_accessibility": "",
  "views_contact-details_aria_label_address_line1": "Enter your address",
  "alberta": "AB",
  "quote_legal_name_label_covIRChangeToIndemnityAE5Y_QC": "QEF 43 - Change to Indemnity -Section B",
  "coverage_header_covIRAccidentBenefits_QC": "What is it?",
  "views_contact-details_placeholder_first_name": "Enter your first name",
  "buy_prior_policy_error_effective_date_cg": "Please enter a valid start date",
  "change_your_detail_modal_heading": "Make changes?",
  "edit_driver_page_title": "Edit Driver",
  "show_accordion": "SHOW",
  "driver_details_serious_convictions_tooltip": "<div class=\"tooltip-heading\">What are serious convictions or tickets?</div><span>Criminal negligence, racing and impaired driving, for example. You can find out more on the Société de l'assurance automobile du Québec website.</span>",
  "address_modal_main_message": "",
  "driver_details_label_license_number": "driver_details_label_license_number",
  "no_go_back_button": "No, go back",
  "views_contact-details_placeholder_city": "Enter your city",
  "descriptive_text_covIRCollision": "{{value}} deductible",
  "buy_prior_policy_carrier_lookup_not_found": "buy_prior_policy_carrier_lookup_not_found",
  "gbb_yes": "Included",
  "csc_creditScoreConsent_CG_left_label": "Yes, you have my permission.",
  "views_contact-details_aria_label_city": "Enter your city",
  "views_all_date_short_month_April": "Apr.",
  "views_contact-details_progress_bar_heading3": "Vehicles",
  "remove_driver_cancel_button": "No, go back",
  "This is a required field": "Please do something here",
  "driver_details_placeholder_serious_convictions": "Enter number of serious convictions",
  "extended_coverage_aria_label": "Click to review the second group of coverages for each plan.",
  "driver_details_error_license_number_invalid": "Driver_details_error_license_number_invalid",
  "vehicle_details_outside_province_use_label": "Will you drive this vehicle outside Quebec?",
  "remove_vehicle_modal_cancel_button": "Nevermind",
  "views_contact-details_intro": "<p style=\"padding-bottom:16px\">Fasten your seatbelts. We’re going for a ride. On the way, you:</p>\r\n<ul  role=\"list\" class=\"arrow\">\r\n       <li role=\"listitem\"><strong><i class=\"c-icon c-icon-chevron-right\"></i>Get personal</strong>: <span>Tell us just a little bit about yourself, other drivers and your vehicles</span>.</li>\r\n       <li role=\"listitem\"><strong><i class=\"c-icon c-icon-chevron-right\"></i>Get quoted</strong>: <span>Compare and even personalize 3 coverage plans we prepare for you</span>.</li>\r\n       <li role=\"listitem\"><strong><i class=\"c-icon c-icon-chevron-right\"></i>Get covered</strong>: <span>Call and buy—say hello to your new plan</span>. </li>\r\n</ol>",
  "vehicle_details_region_driven_out_of_province_placeholder": "Select the region this vehicle is driven (e.g. Ontario)",
  "quote_offer_most_popular": "quote_offer_most_popular",
  "csc_modal_message": "We collect and use credit file information as one factor to determine coverage needs, confirm identity and to assess risk where permitted by product line or by provincial regulations. Your credit file information permits us to provide you with the most competitive quote for new business and for the duration of your business relationship with us.  This inquiry has no impact on your credit rating. ",
  "consent_PrivacyConsent_CG": "Your privacy",
  "quote_coverage_tooltip_covIRComprehensive": "Comprehensive coverage protects you financially against the unexpected. Your car can be stolen. It can be damaged by falling or flying objects or defaced by vandalism and fire. Animal contact can make it undriveable.  You take care of your deductible and we pay for the cost of repairing or replacing your vehicle up to its actual cash value.",
  "views_contact-details_step_heading": "Start",
  "driver_summary": "Your Drivers",
  "discard_coverage_changes_modal_body": "Are you sure you want to do this? ",
  "buy_accordion_heading_3": "Buy_accordion_heading_3 [VIN and Vehicle Information]",
  "button_reset_coverage_acc": "Click to reset this coverage to its original limit or deductible",
  "warning_modal_body": "But, we get it. You probably already have the world record for squeezing out the most minutes from a day. The thing is, we believe we can offer you coverage that’s not a waste of time. Stick around. You're almost&nbsp;there.",
  "autoprefill_instruction": "As you type, we'll suggest similar vehicle names. Use the up and down arrow keys to select your vehicle",
  "driver_details_suspension_radio_required": "Please make a selection",
  "views_contact-details_placeholder_email": "Enter your email address",
  "views_contact-details_label_address_date": "When did you move to this address?",
  "driver_details_loss_fault_placeholder": "Select a fault type (e.g. At-fault)",
  "quote_offer_select_best_aria": "Click to learn more about the premium plan.",
  "vehicle_list_lookup_not_found": "Sorry, we can’t provide an online quote for this vehicle. For help, contact us at <a class=\"c-link  no-wrap\" href=\"tel:18776302667\" aria-label=\"1 8 7 7 6 3 0 2 6 6 7\"><span>1-877-630-2667</span></a>",
  "footer_phone_number_support_message": "",
  "quote_offer_best_title": "Premium",
  "views_all_date_month_February": "February",
  "plan_details_modal_select_plan": "SELECT THIS PLAN",
  "buy_prior_policy_expiry_date_label": "Buy_prior_policy_expiry_date_label",
  "modal_cannot_find_vehicle_close_button_aria": "Click to close dialog",
  "vehicle_details_branded_label": "Vehicle_details_branded_label this is just placeholder text to mkae it long",
  "views_all_app_continue_aria": "",
  "quote_offer_best_subtitle": "The road best travelled.",
  "quote_introductory_text": "We think you’ll like what we put together for you.",
  "views_all_progress_bar_accessibility": "You are on step",
  "Value must be between 1 and 30 characters": "A surname can have up to 30 characters",
  "quote_legal_name_label_covIRCivilLiability": "Civil liability",
  "driver_details_error_license_date_min": "This date suggests you were licenced to drive before you were 16 years old. Try&nbsp;again.",
  "button_confirm_buy": "Buy",
  "retrieve_quote_link": "GET MY QUOTE",
  "vehicle_details_purchase_lease_date_label": "Purchase or lease date",
  "IRAuto_CG Insurance Company Cancelled": "In the last 3 years, has an insurance company cancelled auto coverage for any driver in your household?",
  "year_month_toggle_yearly_label": "Annually",
  "buy_prior_policy_modal_ok_button": "Buy_prior_policy_modal_ok",
  "views_all_date_short_month_October": "Oct.",
  "retrieve_quote_confirmation_modal_cancel_button": "GO BACK",
  "views_contact-details_label_country": "Country",
  "views_all_app_heading": "Get my <span class=\"no-wrap\">Auto Quote</span>",
  "gbb_QEF43_eligible": "Included",
  "already_retrieved_quote_text": "Pick up where you left off.",
  "DOB Error": "Make sure you enter your date of birth correctly. Remember, you must be 16 or older to drive legally.",
  "driver_assignment_modal_missing_title": "Unassigned drivers ",
  "reset_quote_cancel_button": "NO, STAY HERE",
  "views_contact-details_address_tooltip_content": "<div class=\"tooltip-heading\">Why are we asking you this?</div><span>This address is where you park your car most of the time. Providing a correct address helps us protect you against compromising your coverage and your future claims.</span>",
  "views_all_date_short_month_November": "Nov.",
  "year_month_toggle_yearly_announcement": "We are now displaying your yearly rate.",
  "csc_modal_main_heading": "May we check your credit?",
  "remove_driver_modal_heading": "Remove driver",
  "remove_current_vehicle_aria": "",
  "address_modal_ok_button": "OK",
  "quote_legal_name_label_covIRAccidentBenefits_QC": "QEF 34 - Accident Benefits Insurance",
  "vehicle_outside_province_use_tooltip": "<div class=\"tooltip-heading\">Why are we asking you this?</div>\r\n<span>Driving a vehicle outside Quebec for 8 or more consecutive weeks can impact your premium.</span>",
  "tooltip_accessibility": "help icon",
  "show_multi_prod_discount_modal_link": "Check how you can save more on your car quote.",
  "yes_make_changes_modal_button": "Yes, make changes",
  "views_contact-details_placeholder_last_name": "Enter your last name",
  "coverage_header2_covIRCollision": "coverage_header2_covIRCollision",
  "Value must be between 1 and 25 characters": "A name can have up to 25 characters",
  "vehicle_details_accordion_heading_2": "Tell us about the driver",
  "views_contact-details_label_state": "Province",
  "IRAuto_CG Licence Suspended": "In the last 6 years, has any driver in your household had their driver’s licence or vehicle permit suspended?",
  "plan_details_modal_main_heading": "plan details",
  "year_month_toggle_monthly_label": "Monthly",
  "buy_prior_policy_remove_modal_body": "Buy_prior_policy_remove_modal_body",
  "remove_current_vehicle_text": "Remove this vehicle",
  "descriptive_text_covIRComprehensive": "{{value}} deductible",
  "consent_modal_heading": "We need your permission",
  "retrieve_modal_label_email": "Email",
  "coverage_detail2_covIRCollision": "coverage_detail2_covIRCollision",
  "effective_date_modal_message": "effective_date_modal_message",
  "vehicle_details_purchase_price_placeholder": "",
  "vehicle_details_ownership_label": "Own or lease?",
  "coverage_header_covIRComplement_QC": "What is it?",
  "button_acc_confirm_buy": "Click to learn how to purchase your plan",
  "views_contact-details_aria_label_address_line2": "Enter additional address information",
  "consent_modal_heading_message": "We think it’s important that you understand how we use your information, protect your privacy and how we and our partners communicate with you.",
  "coverage_detail2_covIRCivilLiability": "coverage_detail2_covIRCivilLiability",
  "vehicle_details_lien_label": "Do you finance the vehicle?",
  "vehicle_details_error_commute_distance": "Enter up to 250 kms",
  "yes_discard_changes_button": "Yes, discard changes",
  "driver_details_major_convictions_tooltip": "<div class=\"tooltip-heading\">What are major convictions or tickets?</div><span>Speeding over 50, distracted driving and no insurance, for example. You can find out more on the Société de l'assurance automobile du Québec website.</span>",
  "vehicle_details_principal_driver_tooltip": "<div class=\"tooltip-heading\">Why are we asking you this?</div>\r\n<span>The main driver, or principal driver, is the person who drives the vehicle the most.  Accurately entering the main driver’s name is important. An incorrect name can compromise your policy and any potential claims whereas the correct one helps ensure we provide personalized coverage.</span>",
  "gbb_QEF43_vehicle_maybe": "May Qualify-Contact Us",
  "reset_quote_modal_body": "We’ll need to remove your recent changes before taking you back to your plans.  ",
  "driver_details_error_last_name": "The last name is?",
  "header_help": "Prefer to talk about your quote?",
  "button_reset_coverage": "UNDO",
  "Value must be a valid email address": "Your email looks funny. Check it and try again.",
  "driver_details_label_major_convictions": "Major convictions or tickets",
  "driver_details_placeholder_occupation": "Select an occupation type (e.g. Insurance)",
  "Minimum date not met": "Hey, that date doesn’t work for us. But, tomorrow or any date up to 60 days would be perfect. ",
  "vehicle_details_purchase_price_label": "Purchase price",
  "buy_prior_policy_effective_date_label": "Buy_prior_policy_effective_date_label",
  "driver_details_label_license_class": "Licence class",
  "views_all_date_month_January": "January",
  "driver_details_minor_convictions_tooltip": "<div class=\"tooltip-heading\">What are minor convictions or tickets?</div><span>Speeding under 50 and failure to stop or signal, for example. Don't worry, parking tickets don't count. You can find out more on the Société de l'assurance automobile du Québec website.</span>",
  "driver_details_error_marital_status": "The maritial status is?",
  "buy_prior_policy_remove_ok_button_accessibility": "buy_prior_policy_remove_ok_button_accessibility",
  "views_all_date_month_December": "December",
  "quote_coverage_label_covIRComprehensive": "Comprehensive",
  "vehicle_details_vin_label": "vehicle_details_vin_label",
  "error_IRscr7326_description": "Oops, your Quote ID is expired. Don’t worry, you can start a new quote right&nbsp;now. ",
  "underwriting_questions_heading_2": "Underwriting_questions_heading_2 [Vehicle modification]",
  "modal_cannot_find_vehicle_title": "Can’t find your vehicle?",
  "checking_vehicle_details": "We’re checking your vehicle details",
  "views_all_progress_bar_heading_accessibility": "Get my auto quote",
  "driver_details_error_loss_date": "Please enter a valid date",
  "vehicle_details_accordion_heading_1": "Tell us about your vehicle",
  "views_contact-details_label_zip_code": "Postal Code",
  "buy_prior_policy_edit_button": "EDIT",
  "buy_prior_policy_carrier_invalid_character": "buy_prior_policy_carrier_invalid_character",
  "views_contact-details_progress_bar_heading4": "Quote",
  "views_all_app_continue": "CONTINUE",
  "driver_details_error_gender": "Please select a gender",
  "views_all_radio_option_yes": "Yes",
  "buy_prior_policy_not_added_text": "Buy_prior_policy_not_added_text",
  "back_to_all_plans_accessibility": "Click to return to the plans.",
  "quote_coverage_tooltip_covIRCollision": "We cover the costs to repair your vehicle – or compensate you up to its actual cash value – if it collides with another vehicle or an object such as a guard rail. The small print? You’re the cause of the accident, or partly to blame. You take care of your deductible. You don’t worry about the rest.",
  "coverage_detail_covIRComprehensive": "Comprehensive coverage protects you financially against the unexpected. Your car can be stolen. It can be damaged by falling or flying objects or defaced by vandalism and fire. Animal contact can make it undriveable.  You take care of your deductible and we pay for the cost of repairing or replacing your vehicle up to its actual cash value.",
  "views_all_date_month_July": "July",
  "IRAuto_CG Criminal Record": "Does any driver in your household have a criminal record?",
  "buy_prior_policy_remove_modal_heading": "Buy_prior...remove_modal_h",
  "views_quote_details_progress_bar_heading4": "Shop your quote",
  "footer_privacy_label": "Privacy",
  "views_all_date_short_month_August": "Aug.",
  "vehicle_details_vin_placeholder": "vehicle_details_vin_placeholder",
  "driver_assignment_modal_cancel": "Cancel",
  "views_contact-details_placeholder_address": "Find my address",
  "driver_details_prior_policy_exists_tooltip": "<div class=\"tooltip-heading\">Why are we asking you this?</div><span>A picture of your insurance history helps us give you the best coverage and premium.  You’re previously insured if you’ve been listed as a driver on any policy regardless of who owns or insures the vehicle; for example, if you’ve appeared on your parent’s or employer’s policy.</span>",
  "vehicle_list_edit_button_accessibility": "Click update to make changes to this vehicle on your list ",
  "footer_phone_number": "1-877-630-2667",
  "descriptive_text_covIRAccidentBenefits_QC": "{{value}} limit",
  "driver_details_has_convictions_accessibility": "Check Yes if you’ve had any minor convictions or tickets in the last three years.",
  "northwest_terr": "NT",
  "views_contact-details_label_first_name": "First Name",
  "descriptive_text_covIRCivilLiability": "{{value}} limit",
  "buy_effective_expiry_date_label": "buy_effective_expiry_date_label",
  "quote_confirmation_modal_title": "Buying? Good call.",
  "consent_InternalMarketingInd_CG": "Stay connected",
  "checkbox_apply_coverage_all_vehicles_acc": "Check to apply limit to all vehicles",
  "buy_prior_policy_remove_cancel_button": "Buy_prior_policy_remove_cancel",
  "driver_details_is_away_at_school_discount_CG_tooltip": "<div class=\"tooltip-heading\">Why do we need to know this?</div><span>We’ll reduce a full-time student’s premium if they use this vehicle only now and then;  for example, when they’re home for the holidays.</span>",
  "error_IRscr7301_description": "<p class=\"modal-text\">Something in your insurance history means we can’t provide an online&nbsp;quote.</p>\r\n<p class=\"modal-text\">Think you made a mistake? Here are a few things to&nbsp;try:</p>\r\n<p role=\"list\" class=\"arrow\">\r\n    <span role=\"listitem\"><i class=\"c-icon c-icon-chevron-right\"></i>Go back and try&nbsp;again</span>\r\n    <span role=\"listitem\"><i class=\"c-icon c-icon-chevron-right\"></i>Your Quote ID is: <span class=\"no-wrap\"><strong>{{quoteId}}</strong></span>. Jot it down and come back&nbsp;later</span>\r\n    <span role=\"listitem\"><i class=\"c-icon c-icon-chevron-right\"></i><a href=\"mailto:client_service_support@cooperators.ca\" class=\"c-link\"><span>Email</span></a> or contact us at <a aria-label=\"1 8 7 7 6 3 0 2 6 6 7\" class=\"c-link no-wrap\" href=\"tel:1 8 7 7 6 3 0 2 6 6 7\"><span>1-877-630-2667</span></a></span>\r\n</p>",
  "britsh_columbia": "BC",
  "pa_driver_details_add_driver_button": "ADD A NEW DRIVER",
  "reset_quote_ok_button": "OK, LET’S GO",
  "edge_access_left_footer_message_privacy": "Click to learn how we protect your personal information.  Open a new tab for our privacy policies",
  "retrieve_quote_confirmation_modal_confirm_button": "RETRIEVE MY QUOTE",
  "quote_legal_name_label_covIRLossOfUse_QC": "QEF 20-Travel Expenses-Section B",
  "driver_list_remove_button": "REMOVE",
  "driver_details_accordion_heading_3": "How's your driving?",
  "error_technical_title_call_center": "We’ve hit a roadblock",
  "year_month_buy_header_toggle_yearly_label": "year",
  "yukon": "YT",
  "error_technical_close_button": "GOT IT",
  "views_all_date_short_month_December": "Dec.",
  "driver_details_label_minor_convictions": "Minor convictions or tickets",
  "driver_details_placeholder_last_name": "Enter your last name",
  "error_IRcov7324_title": "[en] error_IRscr7324_title",
  "csc_modal_next_step": "NEXT",
  "policy_info_heading": "policy_info_heading",
  "summary_page_title": "You are on the plan details page.",
  "accessibility_link_open_in_new_page": "Opens a new page",
  "footer_privacy_policy": "Privacy Policy",
  "csc_creditScoreConsent_CG_label": "",
  "driver_details_error_license_date": "Your date suggests you were licenced in the future. Try again.",
  "vehicle_list_lookup_something_wrong": "Sorry, we can’t provide an online quote for this vehicle. For help, contact us at <a class=\"c-link  no-wrap\" href=\"tel:18776302667\" aria-label=\"1 8 7 7 6 3 0 2 6 6 7\"><span>1-877-630-2667</span></a>",
  "driver_details_placeholder_license_class": "Licence class",
  "reviewing_driver_details": "We’re reviewing your driver details",
  "vehicle_summary": "Your Vehicles",
  "reset_go_back_acc": "Click to return to the plans",
  "quote_offer_good_subtitle": "An intro to peace of mind.",
  "driver_details_placeholder_license_number": "driver_details_placeholder_license_number",
  "error_application_603_title": "Quote Not Found",
  "buy_prior_policy_carrier_label": "buy_prior_policy_carrier_label",
  "driver_details_losses_tooltip": "<div class=\"tooltip-heading\">Why are we asking you this?</div><span>Your accidents, at-fault and not at-fault, as well as any claims such as windshield damage give us a full picture of your history so that we can give you the best price.</span>",
  "pa_driver_details_multiple_drivers_description": "Scoot over. Share the ride. We’ve got room for up to 6 drivers in <span class=\"no-wrap\">your household.</span>",
  "sidebar_quote_info_edit_btn_accessibility": "Click to make changes to your personal information.",
  "views_contact-detais_placeholder_phone_number": "Enter your phone number",
  "error_IRcov7324_description": "[en] error_IRscr7324_description",
  "views_all_radio_option_no": "No",
  "pa_vehicle_year_make_model_placeholder": "Select a vehicle (e.g. 2018 Ford Focus ST)",
  "views_all_app_error_technical": "Technical Error placeholder",
  "views_all_date_month_August": "August",
  "determining_quote_packages": "And now we’re creating your plans",
  "pa_driver_details_missing_vehicle_heading": "More than one vehicle?",
  "views_all_date_month_May": "May",
  "new_brunswick": "NB",
  "vehicle_details_damage_label": "Vehicle_details_damage_label this is just placeholder text to make it long",
  "pa_driver_details_missing_vehicle_description": "Add up to 4 vehicles. For more, contact us.",
  "retrieve_modal_label_quote_id": "Quote ID",
  "driver_assignment_modal_title": "Assign drivers",
  "ontario": "ON",
  "compare_plans_table_title": "Compare plans",
  "views_all_date_month_April": "April",
  "quote_offer_select_good_aria": "Click to learn more about the essential plan.",
  "vin_lookup_toast_update_success_message": "vin_ lookup_ toast_ update_ success_ message",
  "Please enter a valid Postal code": "Your postal code looks funny. Check it and try again.",
  "views_all_app_previous_step": "PREVIOUS STEP",
  "quote_legal_name_label_covIRComplement_QC": "Complement",
  "buy_prior_policy_carrier_lookup_technical_error": "buy_prior_policy_carrier_lookup_technical_error",
  "modal_close_x": "Close",
  "vehicle_list_remove_button": "REMOVE",
  "quote_coverage_tooltip_covIRChangeToIndemnityAE5Y_QC": "5 minutes after you drive it off the lot, the value of your new car depreciates.  For the first 5 years of ownership or lease we’ll protect you against its depreciation – in the event of a total loss – by paying you up to the original, or manufacturer’s list, price. When it comes to cars, values always change.  We change that.",
  "views_all_date_short_month_January": "Jan.",
  "pa_vehicle_details_multiple_vehicles_heading": "More than one vehicle?",
  "footer_legal_label": "Legal",
  "retrieve_quote_confirmation_modal_cancel_button_accessibility": "Click to return home",
  "retrieve_quote_confirmation_modal_confirm_button_accessibility": "Click to retrieve your quote",
  "pa_vehicle_year_make_model": "Year, make and model",
  "buy_prior_policy_saveall_warning_modal_message": "Message placeholder",
  "error_technical_description": "<p class=\"modal-text\">Don’t worry. It’s not you, it’s&nbsp;us.</p>\r\n<p class=\"modal-text\">Meanwhile, here are a few things to try:</p>\r\n<p role=\"list\" class=\"arrow\">\r\n    <span role=\"listitem\"><i class=\"c-icon c-icon-chevron-right\"></i>Go back and try&nbsp;again</span>\r\n    <span role=\"listitem\"><i class=\"c-icon c-icon-chevron-right\"></i><a href=\"mailto:client_service_support@cooperators.ca\" class=\"c-link\"><span>Email</span></a> or contact us at \r\n</p>",
  "driver_details_serious_convictions_accessibility": "",
  "buy_prior_policy_remove_ok_button": "Buy_prior_policy_remove_ok",
  "views_all_date_short_month_June": "Jun.",
  "vehicle_details_ownership_placeholder": "Select an option (e.g. own or lease)",
  "driver_details_major_convictions_accessibility": "",
  "retrieve_modal_description": "Retrieve your vehicle quote using your quote ID and email.",
  "buy_prior_policy_carrier_cant_find_button": "buy_prior_policy_carrier_cant_find_button",
  "views_all_date_short_month_September": "Sept.",
  "footer_Disclaimer-message": "Insurance policies are offered, underwritten and administered by <span class=\"no-wrap\">Co-operators</span> General Insurance Company. Each quote provided through this website is neither an acceptance of insurance nor a guarantee of insurability, is an estimate of the premium payable only, and does not include applicable taxes. Coverage terms and the actual premium payable will be based on the information you have provided, certain information we may obtain from third parties (subject to any applicable consent requirements), and the selections you make, plus applicable taxes. If there is any inconsistency between the general information provided through this website and your insurance contract, your insurance contract will prevail. If you have any questions, or would like to review your options, please <a class=\"c-link\" aria-labelledby=\"contact_id\" href=\"/PublicPages/ContactUs.aspx\" target=\"_blank\" tabindex=\"0\"><span class=\"sr-only ng-binding\" aria-hidden=\"true\" id=\"contact_id\">{{'accessibility_link_open_in_new_page' | translate}}</span><span>contact us.</span></a>",
  "language_toggle": "Français",
  "error_IRscr7301_title": "We’ve hit a roadblock",
  "manitoba": "MB",
  "views_all_info_bar_heading": "We saved your progress!",
  "pa_vehicle_details_missing_vehicle_description": "Add up to 4 vehicles. For more, contact us.",
  "button_update_coverage": "UPDATE",
  "retrieve_quote_confirmation_modal_heading": "Let’s pull up your quote!",
  "driver_details_prior_policy_exists_label": "Are you or have you ever been insured?",
  "buy_prior_policies_max_reached": "Prior policies max reached placeholder",
  "pa_driver_details_multiple_drivers_heading": "Multiple drivers? ",
  "views_contact-details_label_period_start_date": "When do you want us to start your coverage?",
  "driver_details_placeholder_gender": "Select a gender (e.g. Female)",
  "reset_coverage_changes_button_accessibility": "Click to remove your changes to this plan. ",
  "toggle_navigation_button": "toggle_navigation_button",
  "vehicle_details_region_driven_out_of_province_label": "Which region?",
  "buy_accordion_heading_2": "Buy_accordion_heading_2 [Driver’s Licenses]",
  "buy_effective_date_edit_btn_accessibility": "buy_effective_date_edit_btn_accessibility",
  "site_seo_title": "Car Insurance Quote Canada - The Co-operators",
  "views_all_date_month_June": "June",
  "views_all_date_month_October": "October",
  "Value must be between 0 and 60 characters": "An email can have up to 60 characters",
  "remove_driver_modal_body": "Are you sure you want to do this?",
  "coverage_details_header": "Plan details",
  "driver_details_label_suspension_end": "Suspension end date",
  "quote_show_less_details": "SHOW LESS",
  "driver_details_error_license_date_lt_years_insured": "That’s funny. Looks like you’ve been insured as a principal driver longer than the time you’ve been licenced. Let’s try that&nbsp;again. ",
  "warning_modal_cancel_button": "SO LONG",
  "coverage_detail_covIRLossOfUse_QC": "No matter who is at fault for an accident, we’ll provide a rental car for you and pay for it up to the amount you choose until your car’s recovered, repaired or replaced, or until we take care of your claim.",
  "multiple_prod_discount_button_accessibility": "Click to apply the discount to my quote.",
  "error_technical_description_quote_id": "<p class=\"modal-text\">Don’t worry. It’s not you, it’s&nbsp;us.</p>\r\n<p class=\"modal-text\">Meanwhile, here are a few things to&nbsp;try:</p>\r\n<p role=\"list\" class=\"arrow\">\r\n    <span role=\"listitem\"><i class=\"c-icon c-icon-chevron-right\"></i>Go back and try&nbsp;again</span>\r\n    <span role=\"listitem\"><i class=\"c-icon c-icon-chevron-right\"></i>Your Quote ID is: <span class=\"no-wrap\"><strong>{{quoteId}}</strong></span>. Jot it down and come back&nbsp;later</span>\r\n    <span role=\"listitem\"><i class=\"c-icon c-icon-chevron-right\"></i><a href=\"mailto:client_service_support@cooperators.ca\" class=\"c-link\"><span>Email</span></a> or contact us at <a aria-label=\"1 8 7 7 6 3 0 2 6 6 7\" class=\"c-link no-wrap\" href=\"tel:1 8 7 7 6 3 0 2 6 6 7\"><span>1-877-630-2667</span></a></span>\r\n</p>",
  "vehicle_details_cannot_find_vehicle_button": "I can’t find my vehicle",
  "vehicle_details_error_registration_province": "Sorry, currently we only support vehicles registered in your province.",
  "edit_driver_previous_label": "Cancel",
  "year_month_toggle_monthly_announcement": "We are now displaying your monthly rate.",
  "warning_modal_back_button_accessibility": "Click to return to The Cooperators home page",
  "buy_prior_policy_carrier_search_button": "buy_prior_policy_carrier_search_button",
  "driver_assignment_modal_description": "You have one or more unassigned drivers. Always assign a different principal driver to each vehicle.",
  "modal_cannot_find_vehicle_message": "<p class=\"centered\">Consider it a call away.<br /><br /><a class=\"c-link no-wrap\" href=\"tel:18776302667\" aria-label=\"1 8 7 7 6 3 0 2 6 6 7\"><span>1-877-630-2667</span></a></p>",
  "views_contact-details_label_phone": "Phone number",
  "IRAuto_CG Material Misrepresentation": "In the last 3 years, has an insurance company cancelled coverage or denied a claim for any driver in your household due to material misrepresentation?",
  "vehicle_details_error_purchase_price_min": "Enter $1 or more",
  "error_IRscr7325_title": "Hmm…something’s not&nbsp;right",
  "driver_details_label_years_insured": "Years insured as a principal driver (e.g. 1,2,30)",
  "views_contact-details_accordion_heading_2": "Your Insurance History",
  "views_all_app_previous_step_accessibility": "Go to previous page",
  "error_application_603_description": "Oops, your email and Quote ID don’t match. Can we try that again? ",
  "quote_coverage_label_descriptive_text_covIRComprehensive": "Deductible",
  "pa_vehicle_details_multiple_vehicles_description": "Add up to 4 vehicles. For more, contact us.",
  "vehicle_details_bill_of_sale_label": "When you purchased this vehicle, did it have less than 10,000 <abbr title=\"kilometers\">kms</abbr>",
  "MustBeTrue_QuotePrivacyConsent_CG": "Please accept these conditions to continue.",
  "views_contact-details_label_email_consent_no": "I decline",
  "views_contact-details_label_city": "City",
  "driver_details_error_occupation": "What does the driver do for a living?",
  "error_technical_title": "Hmm…something’s not&nbsp;right",
  "coverage_header2_covIRCivilLiability": "coverage_header2_covIRCivilLiability",
  "multiple_prod_discount_modal_heading": "Say yes, save more on your car quote",
  "verify_button": "verify_button",
  "buy_prior_policy_remove_button": "REMOVE",
  "coverage_header_covIRCivilLiability": "What is it?",
  "driver_details_heading": "Driver",
  "vehicle_details_error_purchase_lease_date_max": "Enter a date up to today.",
  "buy_prior_policy_section_heading": "Buy_prior_policy_section_heading",
  "remove_current_driver_aria": "",
  "show_multi_prod_discount_aria_label": "Select to learn how to save more on your car insurance.",
  "Value must be between 0 and 50 characters": "An address can have up to 50 characters",
  "vehicle_details_cannot_find_vehicle_button_accessibility": "Click for help finding your vehicle.",
  "footer_heading_message": "Got questions for us? That’s OK.",
  "descriptive_text_covIRLossOfUse_QC": "{{value}} limit",
  "driver_details_loss_fault_label": "Fault",
  "warning_modal_back_button": "OK, TAKE ME BACK",
  "multiple_prod_discount_cancel_button": "No, this isn’t for me",
  "Value entered is invalid": "Oops, looks like you don’t live in Quebec. Don’t worry, you can start your <a href=\"https://auto-estimate.cooperators.ca/\" class=\"c-link\"><span>online quote here<span></a> instead. ",
  "page_loading_sr_text": "Your page will appear shortly.",
  "error_IRscr7325_description": "<p class=\"modal-text\">Don’t worry. It’s not you, it’s&nbsp;us.</p>\r\n<p class=\"modal-text\">Meanwhile, here are a few things to&nbsp;try:</p>\r\n<p role=\"list\" class=\"arrow\">\r\n    <span role=\"listitem\"><i class=\"c-icon c-icon-chevron-right\"></i>Go back and try&nbsp;again</span>\r\n    <span role=\"listitem\"><i class=\"c-icon c-icon-chevron-right\"></i>Your Quote ID is: <span class=\"no-wrap\"><strong>{{quoteId}}</strong></span>. Jot it down and come back&nbsp;later</span>\r\n    <span role=\"listitem\"><i class=\"c-icon c-icon-chevron-right\"></i><a href=\"mailto:client_service_support@cooperators.ca\" class=\"c-link\"><span>Email</span></a> or contact us at <a aria-label=\"1 8 7 7 6 3 0 2 6 6 7\" class=\"c-link no-wrap\" href=\"tel:1 8 7 7 6 3 0 2 6 6 7\"><span>1-877-630-2667</span></a></span>\r\n</p>",
  "driver_details_error_suspension_start": "Please enter a valid start date",
  "driver_details_label_first_name": "First Name",
  "views_edit_vehicle_heading": "Edit Vehicle",
  "driver_details_remove_loss_label": "Remove accident or claim",
  "error_technical_description_call_center": "<p class=\"modal-text\">Something you’ve shared with us means we can’t provide an online&nbsp;quote.</p>\r\n<p class=\"modal-text\">Think you made a mistake? Here are a few things to&nbsp;try:</p>\r\n<p role=\"list\" class=\"arrow\">\r\n    <span role=\"listitem\"><i class=\"c-icon c-icon-chevron-right\"></i>Go back and try&nbsp;again</span>\r\n    <span role=\"listitem\"><i class=\"c-icon c-icon-chevron-right\"></i>Your Quote ID is: <span class=\"no-wrap\"><strong>{{quoteId}}</strong></span>. Jot it down and come back&nbsp;later</span>\r\n    <span role=\"listitem\"><i class=\"c-icon c-icon-chevron-right\"></i><a href=\"mailto:client_service_support@cooperators.ca\" class=\"c-link\"><span>Email</span></a> or contact us at <a aria-label=\"1 8 7 7 6 3 0 2 6 6 7\" class=\"c-link no-wrap\" href=\"tel:1 8 7 7 6 3 0 2 6 6 7\"><span>1-877-630-2667</span></a></span>\r\n</p>",
  "quote_details_coverage_sort_order": "[\r\n\"covIRCivilLiability\",\r\n\"covIRCollision\",\r\n\"covIRComprehensive\",\r\n\"covIRAccidentBenefits_QC\",\r\n\"covIRComplement_QC\",\r\n\"covIRLossOfUse_QC\",\r\n\"covIRTravelCosts_QC\",\r\n\"covIRLiabNonOwnedOtherAutos_QC\",\r\n\"covIRChangeToIndemnityAE5Y_QC\"\r\n]",
  "views_all_date_month_September": "September",
  "vehicle_details_commute_distance_tooltip": "<div class=\"tooltip-heading\">Why are we asking you this?</div>\r\n<span>If a person drives to work or school once a week or more, we need to know the one-way commute distance. If it’s not driven to work or school, enter “0”.</span>",
  "sidebar_quote_info_primary_address": "Address",
  "quote_show_more_details": "SHOW MORE",
  "buy_accordion_heading_1": "Buy_accordion_heading_1 [Underwriting Questions]",
  "vehicle_details_vin_tooltip": "<div class=\"tooltip-heading\">Tooltip Heading?</div><span>Tooltip description goes here (vehicle_details_vin_tooltip).</span>",
  "driver_details_placeholder_years_insured": "Enter years insured as a principal driver",
  "quote_offer_select_better_aria": "Click to learn more about the advantage plan.",
  "effective_date_modal_heading": "effective_date_modal_heading",
  "driver_details_label_gender": "Gender",
  "reset_go_back": "PREVIOUS STEP ",
  "views_contact-details_label_email": "Email",
  "retrieve_modal_ok_button_aria": "Click to retrieve my quote.",
  "buy_driver_edit_modal_ok_button": "Buy_driver_edit_modal_ok_button",
  "toggle_navigation_menu_end": "toggle_navigation_menu_end",
  "remove_vehicle_modal_body": "Are you sure you want to remove this vehicle from your quote?",
  "quote_details_coverage_covIRCivilLiability_terms_option_range": "[\r\n\"1,000,000\",\r\n\"2,000,000\"\r\n]",
  "buy_prior_policy_modal_heading": "Buy_prior_policy_modal_h",
  "vin_lookup_single_vehicle_found_toast": "vin_ lookup_ single_ vehicle_ found_ toast {{vehicle}} vin_ lookup_ single_ vehicle_ found_ toast",
  "views_all_date_short_month_March": "Mar.",
  "footer_heading_message_second_part": "We’ve got answers for you.",
  "views_all_date_short_month_July": "Jul.",
  "body_change_your_detail_modal": "If you change your personal information now, you’ll lose your latest updates to your plan details.",
  "underwriting_questions_heading_1": "Underwriting_questions_heading_1 [Vehicle use]",
  "driver_details_placeholder_first_name": "Enter your first name",
  "remove_vehicle_modal_heading": "Remove vehicle",
  "Required_QuotePrivacyConsent_CG": "Please do something here",
  "remove_driver_ok_button": "Yes, remove",
  "vehicle_details_registration_province_placeholder": "Select a province (e.g. Quebec)",
  "footer_copyright": "Copyright <span aria-hidden=\"true\">&copy;</span> 2018 The Co-operators",
  "driver_details_accordion_heading_2": "Licence and training",
  "pa_vehicle_details_missing_vehicle_heading": "More than one vehicle?",
  "vin_lookup_multiple_vehicle_title": "vin_ lookup_ multiple_ vehicle_ title",
  "coverage_detail_covIRCollision": "We cover the costs to repair your vehicle – or compensate you up to its actual cash value – if it collides with another vehicle or an object such as a guard rail. The small print? You’re the cause of the accident, or partly to blame. You take care of your deductible. You don’t worry about the rest.",
  "view_yearly_premium": "view_yearly_premium",
  "Value must be a date in the past": "You’re ahead of your time, it seems, but we just need you to select a move date from the past.",
  "driver_details_label_last_name": "Last Name",
  "warning_modal_heading": "So close yet so far",
  "buy_prior_policy_saveall_warning_one_button": "Add to one placeholder",
  "pei": "PE",
  "payment_details_page_heading": "payment_ details_ page_ heading",
  "reQuote_accessibility": "We’ve added the home and auto bundle discount to your quote.",
  "driver_details_loss_vehicle_type_label": "Vehicle Type",
  "views_all_app_cancel": "SAVE & EXIT",
  "views_all_progress_bar_accessibility_1": "You are on step",
  "reset_coverage_changes_button": "DISCARD CHANGES",
  "year_month_buy_header_toggle_monthly_label": "month",
  "views_contact-details_label_address": "Address",
  "driver_summary_accessibility": "A driver summary appears at the beginning of the page. You can use it to edit or remove drivers from your quote. The driver summary page now includes your driver and their details.",
  "quote_coverage_label_covIRCollision": "Collision",
  "coverage_detail_covIRAccidentBenefits_QC": "Accident Benefits Insurance compensates you, your spouse and dependents who are hurt or killed in a car accident.  It helps cover medical expenses. ",
  "driver_details_minor_convictions_accessibility": "",
  "views_contact-details_label_manual_address": "Manually enter my address",
  "driver_details_label_occupation": "Occupation ",
  "quote_coverage_label_covIRComplement_QC": "Complement",
  "usa": "USA",
  "edit_driver_next_aria": "",
  "site_seo_description": "",
  "pa_driver_details_missing_driver_heading": "Missing anyone?",
  "payment_accordion_heading_1": "payment_accordion_heading_1 [Commission statement]",
  "vehicle_details_lien_tooltip": "<div class=\"tooltip-heading\">Why are we asking you this?</div><span>When financing a vehicle, you will need full coverage. After all, your financing company or lender has a stake in the vehicle, too.</span>",
  "driver_details_placeholder_major_convictions": "Enter number of major convictions",
  "views_all_app_update": "UPDATE",
  "error_IRscr7327_description": "Don’t worry, call us now. We’ll get to the bottom of&nbsp;this. <a aria-label=\"1 8 7 7 6 3 0 2 6 6 7\" class=\"c-link no-wrap\" href=\"tel:1 8 7 7 6 3 0 2 6 6 7\"><span>1-877-630-2667</span></a>",
  "reset_quote_button_accessibility": "Click to go back to plans",
  "driver_details_loss_vehicle_type_placeholder": "Select a vehicle type (e.g. Motorhome)",
  "sidebar_panel_edit_vehicle_aria": "Click to make changes to this vehicle",
  "quote_details_coverages_to_hide": "[\"covIRLeasedVehicle_QC\"]",
  "vehicle_details_acquired_new_label": "Did you purchase the vehicle new?",
  "quote_offer_better_subtitle": "Because we drive in your&nbsp;shoes.",
  "driver_details_label_license_date": "Date you were licenced to drive",
  "quote_coverage_label_covIRCivilLiability": "Civil Liability",
  "quote_legal_name_label_covIRCollision": "Collision and upset",
  "vehicle_auto_prefill_tooltip": "Start typing the year, make and model of your vehicle until it’s read, then select it.  ",
  "driver_details_add_loss_label": "Add accident or claim",
  "compare_plans_title": "Compare Plans",
  "quote_offer_better_title": "Advantage",
  "buy_add_prior_policy_label": "Add prior policy placeholder",
  "retrieve_modal_ok_button": "Retrieve my quote",
  "quote_coverage_tooltip_covIRAccidentBenefits_QC": "Accident Benefits Insurance compensates you, your spouse and dependents who are hurt or killed in a car accident.  It helps cover medical expenses.",
  "driver_details_loss_date_label": "Date of accident or claim",
  "driver_details_hows_your_driving_accessibility": "Please answer the following questions about your driving history.",
  "compare_all_plans_accessibility": "Click to compare your plans",
  "policy_more_info_page_heading": "Buy",
  "error_IRscr7327_title": "We can’t pull up your quote right now",
  "vehicle_details_percentage_business_use_tooltip": "<div class=\"tooltip-heading\">Why are we asking you this?</div>\r\n<span>Using a vehicle for business means you receive compensation for driving. For example, sales call work, delivering merchandise or food, driving clients, or driving for ride-sharing services such as UBER.</span>",
  "vehicle_details_modification_label": "Vehicle_details_modification_label this is just placeholder text to make it long",
  "quote_offer_monthly_interval": "a month",
  "quote_coverage_label_covIRLossOfUse_QC": "Rental Costs",
  "edit_vehicle_previous_label": "Cancel",
  "effective_date_modal_update_button": "effective_date_modal_update_button",
  "vehicle_details_percentage_business_use_label": "Will you use this vehicle for business?",
  "price_loading_sr_text": "Please wait while we generate your quote.    ",
  "Value entered is not a valid answer for question valid answer should be true": "We’re unable to provide an online quote because you’re not previously insured.  Don’t worry, give us a call and we’ll help you finish it. <a class=\"c-link no-wrap\" href=\"tel:18776302667\" aria-label=\"1 8 7 7 6 3 0 2 6 6 7\"><span>1-877-630-2667</span></a>",
  "header_access_help": "To talk about your quote, call: ",
  "view_more_plans": "Tell me more",
  "views_contact-details_aria_label_postal_code": "Enter your postal code",
  "multiple_prod_discount_ok_button": "Yes, give me my discount",
  "pa_vehicle_details_add_vehicle_button": "Add a vehicle",
  "newfoundland": "NL",
  "quote_coverage_label_covIRAccidentBenefits_QC": "Accident Benefits",
  "views_contact-details_accordion_heading_1": "Let’s talk about you",
  "coverage_header_covIRComprehensive": "What is it?",
  "quote_coverage_label_covIRChangeToIndemnityAE5Y_QC": "Depreciation Protection",
  "consent_PrivacyConsent_CG_message": "The Co-operators group of companies [more info] asks for your consent to collect, use, and disclose your personal information for the purposes of confirming your identity, reviewing your insurance needs and determining the suitability of our products and services for you, assessing your application for insurance, issuing a policy, and administering your policy, including assessing claims, detecting and preventing fraud, and performing business and statistical analyses [more info]. Your personal information may be disclosed to our service providers, other third parties, or under applicable laws as described here, Our collection, use and disclosure of your personal information is governed by our privacy policy. If you have any questions regarding this consent or our privacy policy, please email The Co-operators Privacy Officer. <br /> By clicking [I agree], you are consenting to our collection, use, and disclosure of your personal information as described above and certifying to us that you have the express approval of any other person(s) whose personal information is contained in the accompanying application to provide such information to us and to consent, on their behalf, to our collection, use and disclosure of their personal information as described above, which you hereby give.",
  "views_contact-details_label_last_name": "Last Name",
  "quote_offer_select": "Select | Personalize",
  "remove_current_driver_text": "remove this driver",
  "driver_details_has_convictions_tooltip": "<div class=\"tooltip-heading\">Why are we asking you this?</div><span>The number of vehicle infractions can impact your quote; for example, being convicted of speeding or other offenses under the Highway Traffic Act or the Highway Safety Code in the last 3 years. Don’t worry, we don’t count parking tickets.</span>",
  "price_aria_label": "Your premium is",
  "hide_accordion": "HIDE",
  "show_less_aria_label": "Click to go back and review the first group of coverages for each plan.",
  "edit_driver_previous_aria": "",
  "vehicle_details_compensation_label": "Vehicle_details_compensation_label this is just placeholder text to make it long",
  "driver_details_away_at_school_label": "Full-time student living away from home?",
  "views_all_date_short_month_February": "Feb.",
  "views_contact-details_label_address_line_1": "Street address",
  "vehicle_details_error_purchase_lease_date_min": "Sorry, currently we only provide online quotes for vehicles up to 15 years old.",
  "button_close_coverage": "CLOSE",
  "checkbox_apply_coverage_all_vehicles": "Apply to all vehicles",
  "vehicle_details_outside_canada_label": "Vehicle_details_outside_canada_label this is just placeholder text",
  "year_month_toggle_monthly_aria": "Click to view your monthly rate.",
  "driver_details_placeholder_marital_status": "Select marital status (e.g. Married)",
  "views_all_app_next_step": "NEXT STEP",
  "views_contact-details_progress_bar_heading_2": "Drivers",
  "coverage_detail_covIRCivilLiability": "Across Canada, judgements amounting to thousands or even millions of dollars for injuries and property losses are being awarded by courts in ever-increasing numbers. We help protect you from paying for damages out-of-pocket by covering the settlement amount up to your limit.   ",
  "vehicle_details_annual_mileage_accessiblity_label": "Annual mileage kilometers",
  "quote_details_coverage_covIRCollision_terms_option_range": "[\r\n\"500\",\r\n\"750\",\r\n\"1,000\",\r\n\"1,500\",\r\n\"2,000\"\r\n]",
  "driver_details_placeholder_minor_convictions": "Enter number of minor convictions",
  "edit_driver_next_label": "Update",
  "views_contact-details_progress_bar_heading2": "Drivers",
  "views_all_date_short_month_May": "May",
  "quote_details_coverage_covIRComprehensive_terms_option_range": "[\r\n\"250\",\r\n\"500\",\r\n\"750\",\r\n\"1,000\",\r\n\"1,500\"\r\n]",
  "footer_phone_number_accessibility": "To talk about your quote, call:",
  "views_all_date_month_November": "November",
  "coverage_header_covIRChangeToIndemnityAE5Y_QC": "What is it?",
  "driver_details_accordion_heading_1": "Who’s Driving?",
  "views_contact-details_label_email_consent_yes": "I accept",
  "Maximum date not met": "Hey, that date doesn’t work for us. But, tomorrow or any date up to 60 days would be perfect. ",
  "driver_details_error_suspension_end": "Please enter a valid end date",
  "views_all_progress_bar_accessibility_2": "of",
  "views_contact-details_placeholder_address_line_2": "Enter additional address information",
  "views_contact-details_placeholder_zip_code": "Postal Code",
  "views_contact-details_label_marketing_consent": "Do you consent to receiving communications from us via email regarding your quote? We won’t email you for any other purpose unless we have first obtained your consent.",
  "autoprefill_suggestion_list": "Suggestions are available for this field. Use up and down arrows to select a suggestion and enter key to use it.",
  "driver_list_edit_button": "EDIT",
  "quote_coverage_tooltip_covIRLossOfUse_QC": "No matter who is at fault for an accident, we’ll provide a rental car for you and pay for it up to the amount you choose until your car’s recovered, repaired or replaced, or until we take care of your claim.",
  "discard_coverage_changes_modal_heading": "Discard your changes",
  "views_all_date_day_placeholder": "Day",
  "driver_details_error_first_name": "The first name is?",
  "button_update_coverage_acc": "Click to add this coverage to your quote.",
  "driver_details_label_marital_status": "Marital Status",
  "buy_driver_edit_modal_heading": "Buy_driver_edit_modal_h",
  "driver_details_losses_label": "In the last 6 years, have you had an accident or made a claim?",
  "vehicle_details_driven_out_of_province_label": "How often?",
  "views_all_date_TO_text": "to",
  "vehicle_list_edit_button": "EDIT",
  "PO Box Error": "Enter a street address, not a PO box.",
  "view_monthly_premium": "view_monthly_premium",
  "pa_driver_details_missing_driver_description": "Contact us, we’ll add more drivers <span class=\"no-wrap\">for you.</span>",
  "edge_access_footer_left_heading_phone_number": "1-877-630-2667",
  "quote_coverage_title_heading": "The plans",
  "header_access_phone": "1-877-630-2667",
  "sidebar_panel_edit_driver_aria": "Click to make changes to this driver.",
  "button_close_coverage_acc": "Click to exit coverage",
  "consent_modal_continue_button": "LET’S GO",
  "retrieve_modal_placeholder_quote_id": "XXX-XXX-XXXXX",
  "nunavut": "NU",
  "modal_cannot_find_vehicle_close_button": "GOT IT",
  "quote_coverage_tooltip_covIRCivilLiability": "Across Canada, judgements amounting to thousands or even millions of dollars for injuries and property losses are being awarded by courts in ever-increasing numbers. We help protect you from paying for damages out-of-pocket by covering the settlement amount up to your limit.",
  "driver_list_edit_button_accessibility": "Click Edit to make changes to this driver on your list ",
  "sidebar_quote_info_email_address": "Email",
  "vehicle_details_driven_out_of_province_placeholder": "Select how often this vehicle is driven out-of-province (e.g. Daily)",
  "Value must be in the filter": "Oops, looks like you don’t live in Quebec. Don’t worry, you can start your <a href=\"https://auto-estimate.cooperators.ca/\" class=\"c-link\"><span>online quote here</span></a> instead. ",
  "vehicle_details_registration_province_label": "Province registered",
  "vehicle_details_error_annual_mileage_min": "Enter 1 km or more",
  "footer_legal_link_accessibility": "Click for information on terms and conditions, and other legal information. Open a new tab for our legal policies",
  "vehicle_details_annual_mileage_label": "Annual mileage <abbr title=\"kilometers\">(kms)</abbr>",
  "retrieve_modal_main_heading": "Pull up my quote",
  "mobile_menu_retrieve_quote": "mobile_menu_retrieve_quote",
  "quote_confirmation_modal_description": "<p class=\"modal-text\">Call us now. Say hello to the {{planName}} plan. <a aria-label=\"1 8 7 7 6 3 0 2 6 6 7\" class=\"c-link no-wrap\" href=\"tel:1 8 7 7 6 3 0 2 6 6 7\"><span>1-877-630-2667</span></a></p>\r\n<p class=\"modal-text\">Don’t forget—have your info handy as well:</p>\r\n<p role=\"list\" class=\"arrow\">\r\n    <span role=\"listitem\"><i class=\"c-icon c-icon-chevron-right\"></i>Quote ID is: <span class=\"no-wrap\"><strong>{{quoteId}}</strong></span></span>\r\n   <span role=\"listitem\"><i class=\"c-icon c-icon-chevron-right\"></i>Driver’s licences</span>\r\n   <span role=\"listitem\"><i class=\"c-icon c-icon-chevron-right\"></i>Vehicle ownership info</span>\r\n   <span role=\"listitem\"><i class=\"c-icon c-icon-chevron-right\"></i>Current or previous insurance info</span>\r\n   <span role=\"listitem\"><i class=\"c-icon c-icon-chevron-right\"></i>Financing info</span>\r\n</p>",
  "MustBeTrue_PrivacyConsent_CG": "MustBeTrue_PrivacyConsent_CG",
  "remove_vehicle_modal_ok_button": "Remove Vehicle",
  "multiple_prod_discount_cancel_button_accessibility": "Click to not apply the discount.",
  "retrieve_quote_confirmation_modal_body": "Keep going and pull up your quote - if you want to start a new one later, you’ll need to start fresh.",
  "multiple_prod_discount_modal_body": "Do you already have home, rental or condo insurance with us?",
  "driver_details_max_loss_1": "Got another claim? Let’s talk about it. <a aria-label=\"{{'footer_phone_number_accessibility' | translate}}{{'footer_phone_number' | translate | telePhoneAriaLabel}}\" class=\"c-link no-wrap\" href=\"tel:{{'footer_phone_number' | translate | telePhoneHref}}\" tabindex=\"0\"><span>{{'footer_phone_number' | translate}}</span></a>"
}
